Programming with R
…
# The trouble with tibbles (cont.)

Consider the situation where we wish to retrieve one column:

.pull-left[

```r
mass[,1]
```

```
## # A tibble: 75 x 1
##    Gender
##    <chr> 
##  1 Female
##  2 Female
##  3 Male  
##  4 Female
##  5 Female
##  6 Female
##  7 Female
##  8 Female
##  9 Female
## 10 Female
## # … with 65 more rows
```
…
